TP de Biométrie Semestre 4 - 4 Correction des exercices
…
Examinez le tableau weather du package nycflights13 et lisez son fichier d’aide pour comprendre à quoi correspondent les données et comment elles ont été acquises.

weather
?weahter

À partir du tableau weather faites un tableau indiquant les vitesses de vents minimales, maximales et moyennes, enregistrées chaque mois dans chaque aéroport de New York. Indice : les 3 aéroports de New York sont Newark, LaGuardia Airport et John F. Kennedy, notés respectivement EWR, LGA et JFK dans la variable origin.

windy <- weather |>
  summarise(max_wind = max(wind_speed, na.rm = TRUE),
            min_wind = min(wind_speed, na.rm = TRUE),
            moy_wind = mean(wind_speed, na.rm = TRUE),
            .by = c(origin, month))
windy

# A tibble: 36 × 5
   origin month max_wind min_wind moy_wind
   <chr>  <int>    <dbl>    <dbl>    <dbl>
 1 EWR        1     42.6        0     9.87
 2 EWR        2   1048.         0    12.2 
 3 EWR        3     29.9        0    11.6 
 4 EWR        4     25.3        0     9.63
 5 EWR        5     33.4        0     8.49
 6 EWR        6     34.5        0     9.55
 7 EWR        7     20.7        0     9.15
 8 EWR        8     21.9        0     7.62
 9 EWR        9     23.0        0     8.03
10 EWR       10     26.5        0     8.32
# ℹ 26 more rows
…
Ici, 1048 mph est impossible. Il s’agit soit d’un dysfonctionnement de l’appareil de mesure, soit d’une erreur de saisie. Pour éliminer cette valeur aberrante, on utilise filter() :

windy2 <- weather |>
  filter(wind_speed <= 500) |>
  summarise(max_wind = max(wind_speed, na.rm = TRUE),
            min_wind = min(wind_speed, na.rm = TRUE),
            moy_wind = mean(wind_speed, na.rm = TRUE),
            .by = c(origin, month))
windy2

# A tibble: 36 × 5
   origin month max_wind min_wind moy_wind
   <chr>  <int>    <dbl>    <dbl>    <dbl>
 1 EWR        1     42.6        0     9.87
 2 EWR        2     31.1        0    10.7 
 3 EWR        3     29.9        0    11.6 
 4 EWR        4     25.3        0     9.63
 5 EWR        5     33.4        0     8.49
 6 EWR        6     34.5        0     9.55
 7 EWR        7     20.7        0     9.15
 8 EWR        8     21.9        0     7.62
 9 EWR        9     23.0        0     8.03
10 EWR       10     26.5        0     8.32
# ℹ 26 more rows
…
